-------------------------------------------------------------------------------
Test set: ginseng.TodosLosTest
-------------------------------------------------------------------------------
Tests run: 1, Failures: 0, Errors: 0, Skipped: 0, Time elapsed: 20.734 sec
